Tutorial_4
…
#Democratic
annoData_spacy %>%
  filter(entity_type == "PERSON")%>%
  filter(Party == "Democratic") %>%
  group_by(entity) %>% 
  summarize(count = n()) %>%
  top_n(n=10) %>%
  arrange(desc(count))

Selecting by count

# A tibble: 44 × 2
   entity            count
   <chr>             <int>
 1 Providence            5
 2 God                   4
 3 Territory             4
 4 Chief Justice         3
 5 Bush                  2
 6 Fellow                2
 7 George Washington     2
 8 Abraham Lincoln       1
 9 Administrations       1
10 Biden                 1
# ℹ 34 more rows
…
