Tutorial_5 – DACSS758 Text as Data Fall 2025
…
Tidytext package

In addition to quanteda, there are other packages containing different lists of stopwords, for example, tidytext. Tidytext provides various lexicons for English stop words. Sources of the stopwords are: snowball, SMART, or onix.

tidytextstopwords <- tidytext::stop_words
#View(tidytextstopwords)
table(tidytextstopwords$lexicon)

    onix    SMART snowball 
     404      571      174 

#OR
tidytext::get_stopwords(source = "smart")

# A tibble: 571 × 2
   word        lexicon
   <chr>       <chr>  
 1 a           smart  
 2 a's         smart  
 3 able        smart  
 4 about       smart  
 5 above       smart  
 6 according   smart  
 7 accordingly smart  
 8 across      smart  
 9 actually    smart  
10 after       smart  
# ℹ 561 more rows

tidytext::get_stopwords(language = "de") # change language

# A tibble: 231 × 2
   word  lexicon 
   <chr> <chr>   
 1 aber  snowball
 2 alle  snowball
 3 allem snowball
 4 allen snowball
 5 aller snowball
 6 alles snowball
 7 als   snowball
 8 also  snowball
 9 am    snowball
10 an    snowball
# ℹ 221 more rows
…
